Hello World
…
1 Install packages

#install.packages("tidyverse")
library(tidyverse)

2 Data importing

2.1 Import data from a package

library(palmerpenguins)

penguins

# A tibble: 344 × 8
   species island    bill_length_mm bill_depth_mm flipper_length_mm body_mass_g
   <fct>   <fct>              <dbl>         <dbl>             <int>       <int>
 1 Adelie  Torgersen           39.1          18.7               181        3750
 2 Adelie  Torgersen           39.5          17.4               186        3800
 3 Adelie  Torgersen           40.3          18                 195        3250
 4 Adelie  Torgersen           NA            NA                  NA          NA
 5 Adelie  Torgersen           36.7          19.3               193        3450
 6 Adelie  Torgersen           39.3          20.6               190        3650
 7 Adelie  Torgersen           38.9          17.8               181        3625
 8 Adelie  Torgersen           39.2          19.6               195        4675
 9 Adelie  Torgersen           34.1          18.1               193        3475
10 Adelie  Torgersen           42            20.2               190        4250
# ℹ 334 more rows
# ℹ 2 more variables: sex <fct>, year <int>

2.2 Import data from your computer

penguins_data <- read_csv("datafile.csv")

penguins_data

# A tibble: 344 × 9
   rowid species island    bill_length_mm bill_depth_mm flipper_length_mm
   <dbl> <chr>   <chr>              <dbl>         <dbl>             <dbl>
 1     1 Adelie  Torgersen           39.1          18.7               181
 2     2 Adelie  Torgersen           39.5          17.4               186
 3     3 Adelie  Torgersen           40.3          18                 195
 4     4 Adelie  Torgersen           NA            NA                  NA
 5     5 Adelie  Torgersen           36.7          19.3               193
 6     6 Adelie  Torgersen           39.3          20.6               190
 7     7 Adelie  Torgersen           38.9          17.8               181
 8     8 Adelie  Torgersen           39.2          19.6               195
 9     9 Adelie  Torgersen           34.1          18.1               193
10    10 Adelie  Torgersen           42            20.2               190
# ℹ 334 more rows
# ℹ 3 more variables: body_mass_g <dbl>, sex <chr>, year <dbl>

3 Data Cleaning

3.1 Handling missing values

na.omit(penguins_data)

# A tibble: 333 × 9
   rowid species island    bill_length_mm bill_depth_mm flipper_length_mm
   <dbl> <chr>   <chr>              <dbl>         <dbl>             <dbl>
 1     1 Adelie  Torgersen           39.1          18.7               181
 2     2 Adelie  Torgersen           39.5          17.4               186
 3     3 Adelie  Torgersen           40.3          18                 195
 4     5 Adelie  Torgersen           36.7          19.3               193
 5     6 Adelie  Torgersen           39.3          20.6               190
 6     7 Adelie  Torgersen           38.9          17.8               181
 7     8 Adelie  Torgersen           39.2          19.6               195
 8    13 Adelie  Torgersen           41.1          17.6               182
 9    14 Adelie  Torgersen           38.6          21.2               191
10    15 Adelie  Torgersen           34.6          21.1               198
# ℹ 323 more rows
# ℹ 3 more variables: body_mass_g <dbl>, sex <chr>, year <dbl>

3.2 Data transformation

penguins_data |>
  mutate(boday_mass_kg = body_mass_g/1000,
         .after = "species")

# A tibble: 344 × 10
   rowid species boday_mass_kg island    bill_length_mm bill_depth_mm
   <dbl> <chr>           <dbl> <chr>              <dbl>         <dbl>
 1     1 Adelie           3.75 Torgersen           39.1          18.7
 2     2 Adelie           3.8  Torgersen           39.5          17.4
 3     3 Adelie           3.25 Torgersen           40.3          18  
 4     4 Adelie          NA    Torgersen           NA            NA  
 5     5 Adelie           3.45 Torgersen           36.7          19.3
 6     6 Adelie           3.65 Torgersen           39.3          20.6
 7     7 Adelie           3.62 Torgersen           38.9          17.8
 8     8 Adelie           4.68 Torgersen           39.2          19.6
 9     9 Adelie           3.48 Torgersen           34.1          18.1
10    10 Adelie           4.25 Torgersen           42            20.2
# ℹ 334 more rows
# ℹ 4 more variables: flipper_length_mm <dbl>, body_mass_g <dbl>, sex <chr>,
#   year <dbl>
…
